{
  "photos": {
    "page": 1,
    "pages": 5851,
    "perpage": 100,
    "total": "585087",
    "photo": [
      {
        "id": "32687015537",
        "owner": "141130018@N05",
        "secret": "973c56e182",
        "server": "65535",
        "farm": 66,
        "title": ". . @prilaga  #pets #animal #prilaga #pet #dog #nice",
        "ispublic": 1,
        "isfriend": 0,
        "isfamily": 0
      },
      {
        "id": "46905282314",
        "owner": "140702646@N02",
        "secret": "bd7624fb02",
        "server": "65535",
        "farm": 66,
        "title": "DSC_3151",
        "ispublic": 1,
        "isfriend": 0,
        "isfamily": 0
      },
      {
        "id": "47629520601",
        "owner": "14389801@N03",
        "secret": "501168cb39",
        "server": "65535",
        "farm": 66,
        "title": "Bertram  Hopway Everything I Need \u2764",
        "ispublic": 1,
        "isfriend": 0,
        "isfamily": 0
      },
      {
        "id": "46905262024",
        "owner": "146860704@N06",
        "secret": "04233f4437",
        "server": "65535",
        "farm": 66,
        "title": "97",
        "ispublic": 1,
        "isfriend": 0,
        "isfamily": 0
      },
      {
        "id": "40663093083",
        "owner": "154589726@N05",
        "secret": "5a19f3028b",
        "server": "65535",
        "farm": 66,
        "title": "Gardenjournal 2019 - April",
        "ispublic": 1,
        "isfriend": 0,
        "isfamily": 0
      },
      {
        "id": "46713960165",
        "owner": "147985218@N07",
        "secret": "2d38706587",
        "server": "65535",
        "farm": 66,
        "title": "landseer Dog",
        "ispublic": 1,
        "isfriend": 0,
        "isfamily": 0
      },
      {
        "id": "32686982987",
        "owner": "147985218@N07",
        "secret": "d4fb83fe78",
        "server": "65535",
        "farm": 66,
        "title": "landseer Dog",
        "ispublic": 1,
        "isfriend": 0,
        "isfamily": 0
      },
      {
        "id": "46713957565",
        "owner": "147985218@N07",
        "secret": "cde8034324",
        "server": "65535",
        "farm": 66,
        "title": "landseer Dog",
        "ispublic": 1,
        "isfriend": 0,
        "isfamily": 0
      },
      {
        "id": "46713954885",
        "owner": "147985218@N07",
        "secret": "2fdaa2c84b",
        "server": "65535",
        "farm": 66,
        "title": "landseer Dog",
        "ispublic": 1,
        "isfriend": 0,
        "isfamily": 0
      },
      {
        "id": "47629492181",
        "owner": "147985218@N07",
        "secret": "c694322b0e",
        "server": "65535",
        "farm": 66,
        "title": "labrador retriever",
        "ispublic": 1,
        "isfriend": 0,
        "isfamily": 0
      },
      {
        "id": "47576770312",
        "owner": "147985218@N07",
        "secret": "21b6105113",
        "server": "65535",
        "farm": 66,
        "title": "landseer Dog",
        "ispublic": 1,
        "isfriend": 0,
        "isfamily": 0
      },
      {
        "id": "47629486871",
        "owner": "147985218@N07",
        "secret": "f21639ba8a",
        "server": "65535",
        "farm": 66,
        "title": "landseer Dog",
        "ispublic": 1,
        "isfriend": 0,
        "isfamily": 0
      },
      {
        "id": "47576766862",
        "owner": "147985218@N07",
        "secret": "39c31c712b",
        "server": "65535",
        "farm": 66,
        "title": "landseer Dog",
        "ispublic": 1,
        "isfriend": 0,
        "isfamily": 0
      },
      {
        "id": "32686973467",
        "owner": "147985218@N07",
        "secret": "eafd8f4e72",
        "server": "65535",
        "farm": 66,
        "title": "landseer Dog",
        "ispublic": 1,
        "isfriend": 0,
        "isfamily": 0
      },
      {
        "id": "46905240744",
        "owner": "146860704@N06",
        "secret": "56c7983e22",
        "server": "65535",
        "farm": 66,
        "title": "208",
        "ispublic": 1,
        "isfriend": 0,
        "isfamily": 0
      },
      {
        "id": "32686962047",
        "owner": "60648998@N00",
        "secret": "0d067f5ef3",
        "server": "65535",
        "farm": 66,
        "title": "60thIPSwim-Day2-Ses2-160",
        "ispublic": 1,
        "isfriend": 0,
        "isfamily": 0
      },
      {
        "id": "46905232384",
        "owner": "168807523@N04",
        "secret": "b57e46195f",
        "server": "65535",
        "farm": 66,
        "title": "_MG_9972",
        "ispublic": 1,
        "isfriend": 0,
        "isfamily": 0
      },
      {
        "id": "40663063863",
        "owner": "148486353@N06",
        "secret": "9b39fd4d58",
        "server": "65535",
        "farm": 66,
        "title": "France, April 2019. Palais Id\u00e9al",
        "ispublic": 1,
        "isfriend": 0,
        "isfamily": 0
      },
      {
        "id": "32686956717",
        "owner": "168807523@N04",
        "secret": "d24064a49e",
        "server": "65535",
        "farm": 66,
        "title": "_MG_9988",
        "ispublic": 1,
        "isfriend": 0,
        "isfamily": 0
      },
      {
        "id": "46905226544",
        "owner": "22971332@N00",
        "secret": "d88ac3d7d1",
        "server": "65535",
        "farm": 66,
        "title": "s761",
        "ispublic": 1,
        "isfriend": 0,
        "isfamily": 0
      },
      {
        "id": "32686953317",
        "owner": "123688941@N06",
        "secret": "002e5b21a5",
        "server": "65535",
        "farm": 66,
        "title": "Location\/\/Travels.",
        "ispublic": 1,
        "isfriend": 0,
        "isfamily": 0
      },
      {
        "id": "46713925365",
        "owner": "22971332@N00",
        "secret": "61ec662676",
        "server": "65535",
        "farm": 66,
        "title": "s774",
        "ispublic": 1,
        "isfriend": 0,
        "isfamily": 0
      },
      {
        "id": "47576735212",
        "owner": "60648998@N00",
        "secret": "90581bd373",
        "server": "65535",
        "farm": 66,
        "title": "60thIPSwim-Day2-Ses2-229",
        "ispublic": 1,
        "isfriend": 0,
        "isfamily": 0
      },
      {
        "id": "40663056003",
        "owner": "60648998@N00",
        "secret": "967f8cbc3e",
        "server": "65535",
        "farm": 66,
        "title": "60thIPSwim-Day2-Ses2-230",
        "ispublic": 1,
        "isfriend": 0,
        "isfamily": 0
      },
      {
        "id": "47576733552",
        "owner": "60648998@N00",
        "secret": "341a8065d5",
        "server": "65535",
        "farm": 66,
        "title": "60thIPSwim-Day2-Ses2-236",
        "ispublic": 1,
        "isfriend": 0,
        "isfamily": 0
      },
      {
        "id": "46905220914",
        "owner": "60648998@N00",
        "secret": "d95cc6257a",
        "server": "65535",
        "farm": 66,
        "title": "60thIPSwim-Day2-Ses2-237",
        "ispublic": 1,
        "isfriend": 0,
        "isfamily": 0
      },
      {
        "id": "32686928217",
        "owner": "146384369@N06",
        "secret": "ded3155152",
        "server": "65535",
        "farm": 66,
        "title": "DSC_9509",
        "ispublic": 1,
        "isfriend": 0,
        "isfamily": 0
      },
      {
        "id": "46713900575",
        "owner": "134288242@N06",
        "secret": "f35183af7a",
        "server": "65535",
        "farm": 66,
        "title": "000168020014",
        "ispublic": 1,
        "isfriend": 0,
        "isfamily": 0
      },
      {
        "id": "47576617902",
        "owner": "145442938@N05",
        "secret": "08cdf161fc",
        "server": "65535",
        "farm": 66,
        "title": "DSCF6367",
        "ispublic": 1,
        "isfriend": 0,
        "isfamily": 0
      },
      {
        "id": "47576770112",
        "owner": "60648998@N00",
        "secret": "e74b213658",
        "server": "65535",
        "farm": 66,
        "title": "60thIPSwim-Day2-Ses2-37",
        "ispublic": 1,
        "isfriend": 0,
        "isfamily": 0
      },
      {
        "id": "40663072123",
        "owner": "60648998@N00",
        "secret": "4604c2abb4",
        "server": "65535",
        "farm": 66,
        "title": "60thIPSwim-Day2-Ses2-109",
        "ispublic": 1,
        "isfriend": 0,
        "isfamily": 0
      },
      {
        "id": "46905232524",
        "owner": "145696477@N05",
        "secret": "832c182827",
        "server": "65535",
        "farm": 66,
        "title": "Clear piggie eyelashes",
        "ispublic": 1,
        "isfriend": 0,
        "isfamily": 0
      },
      {
        "id": "47576736142",
        "owner": "147985218@N07",
        "secret": "42a218450e",
        "server": "65535",
        "farm": 66,
        "title": "landseer & berge de Podale",
        "ispublic": 1,
        "isfriend": 0,
        "isfamily": 0
      },
      {
        "id": "47629463411",
        "owner": "147985218@N07",
        "secret": "5e212db92a",
        "server": "65535",
        "farm": 66,
        "title": "Landsser Dog Puppy",
        "ispublic": 1,
        "isfriend": 0,
        "isfamily": 0
      },
      {
        "id": "46905219164",
        "owner": "147985218@N07",
        "secret": "2ea28d7b0c",
        "server": "65535",
        "farm": 66,
        "title": "Landsser Dog Puppy",
        "ispublic": 1,
        "isfriend": 0,
        "isfamily": 0
      },
      {
        "id": "47576725652",
        "owner": "147985218@N07",
        "secret": "3533aeae9d",
        "server": "65535",
        "farm": 66,
        "title": "Landsser Dog Puppy",
        "ispublic": 1,
        "isfriend": 0,
        "isfamily": 0
      },
      {
        "id": "32686945247",
        "owner": "41994643@N07",
        "secret": "863a521b4b",
        "server": "65535",
        "farm": 66,
        "title": "IMG_0417",
        "ispublic": 1,
        "isfriend": 0,
        "isfamily": 0
      },
      {
        "id": "32686944977",
        "owner": "152346106@N05",
        "secret": "69b8dbfd3c",
        "server": "65535",
        "farm": 66,
        "title": "New pvc walls in waiting area",
        "ispublic": 1,
        "isfriend": 0,
        "isfamily": 0
      },
      {
        "id": "47576694462",
        "owner": "60648998@N00",
        "secret": "98b566a38d",
        "server": "65535",
        "farm": 66,
        "title": "60thIPSwim-Day2-Ses1-57",
        "ispublic": 1,
        "isfriend": 0,
        "isfamily": 0
      },
      {
        "id": "47576691962",
        "owner": "60648998@N00",
        "secret": "048cd65760",
        "server": "65535",
        "farm": 66,
        "title": "60thIPSwim-Day2-Ses1-73",
        "ispublic": 1,
        "isfriend": 0,
        "isfamily": 0
      },
      {
        "id": "40663022303",
        "owner": "155444159@N04",
        "secret": "e63eb9d66d",
        "server": "65535",
        "farm": 66,
        "title": "jells_parkrun",
        "ispublic": 1,
        "isfriend": 0,
        "isfamily": 0
      },
      {
        "id": "32686910687",
        "owner": "163264720@N02",
        "secret": "4d00f5ab76",
        "server": "65535",
        "farm": 66,
        "title": "",
        "ispublic": 1,
        "isfriend": 0,
        "isfamily": 0
      },
      {
        "id": "47576683252",
        "owner": "60648998@N00",
        "secret": "4dd152577d",
        "server": "65535",
        "farm": 66,
        "title": "60thIPSwim-Day2-Ses1-104",
        "ispublic": 1,
        "isfriend": 0,
        "isfamily": 0
      },
      {
        "id": "46713885835",
        "owner": "147657328@N07",
        "secret": "407933afc1",
        "server": "65535",
        "farm": 66,
        "title": "Reservoir Dogs",
        "ispublic": 1,
        "isfriend": 0,
        "isfamily": 0
      },
      {
        "id": "47576678822",
        "owner": "60648998@N00",
        "secret": "54b1755ec3",
        "server": "65535",
        "farm": 66,
        "title": "60thIPSwim-Day2-Ses1-115",
        "ispublic": 1,
        "isfriend": 0,
        "isfamily": 0
      },
      {
        "id": "46713882455",
        "owner": "60648998@N00",
        "secret": "f259614a52",
        "server": "65535",
        "farm": 66,
        "title": "60thIPSwim-Day2-Ses1-117",
        "ispublic": 1,
        "isfriend": 0,
        "isfamily": 0
      },
      {
        "id": "46905178114",
        "owner": "12851146@N00",
        "secret": "212aebd955",
        "server": "65535",
        "farm": 66,
        "title": "Easter Bunny Ears, Adult Teeth & a Big-boy Bumper",
        "ispublic": 1,
        "isfriend": 0,
        "isfamily": 0
      },
      {
        "id": "47629416381",
        "owner": "24902456@N06",
        "secret": "6fce6882ce",
        "server": "65535",
        "farm": 66,
        "title": "April is wonderful",
        "ispublic": 1,
        "isfriend": 0,
        "isfamily": 0
      },
      {
        "id": "47576674862",
        "owner": "150068262@N06",
        "secret": "8a41268a27",
        "server": "65535",
        "farm": 66,
        "title": "IMG_9768",
        "ispublic": 1,
        "isfriend": 0,
        "isfamily": 0
      },
      {
        "id": "46905172894",
        "owner": "150068262@N06",
        "secret": "108d171cc7",
        "server": "65535",
        "farm": 66,
        "title": "IMG_9732",
        "ispublic": 1,
        "isfriend": 0,
        "isfamily": 0
      },
      {
        "id": "46713873925",
        "owner": "150068262@N06",
        "secret": "e79a9ab2ee",
        "server": "65535",
        "farm": 66,
        "title": "IMG_9724",
        "ispublic": 1,
        "isfriend": 0,
        "isfamily": 0
      },
      {
        "id": "33752069748",
        "owner": "150068262@N06",
        "secret": "1a210d6684",
        "server": "65535",
        "farm": 66,
        "title": "IMG_0248",
        "ispublic": 1,
        "isfriend": 0,
        "isfamily": 0
      },
      {
        "id": "46713861795",
        "owner": "150068262@N06",
        "secret": "ae5ce4de03",
        "server": "65535",
        "farm": 66,
        "title": "IMG_0244",
        "ispublic": 1,
        "isfriend": 0,
        "isfamily": 0
      },
      {
        "id": "33752069038",
        "owner": "150068262@N06",
        "secret": "9bd07b698b",
        "server": "65535",
        "farm": 66,
        "title": "IMG_0242",
        "ispublic": 1,
        "isfriend": 0,
        "isfamily": 0
      },
      {
        "id": "47576655082",
        "owner": "150068262@N06",
        "secret": "5ed03bb579",
        "server": "65535",
        "farm": 66,
        "title": "IMG_0193",
        "ispublic": 1,
        "isfriend": 0,
        "isfamily": 0
      },
      {
        "id": "47576650292",
        "owner": "150068262@N06",
        "secret": "9e686afbc9",
        "server": "65535",
        "farm": 66,
        "title": "IMG_0107",
        "ispublic": 1,
        "isfriend": 0,
        "isfamily": 0
      },
      {
        "id": "47576649342",
        "owner": "150068262@N06",
        "secret": "62808dff7e",
        "server": "65535",
        "farm": 66,
        "title": "IMG_0071",
        "ispublic": 1,
        "isfriend": 0,
        "isfamily": 0
      },
      {
        "id": "47629392441",
        "owner": "150068262@N06",
        "secret": "b892f53167",
        "server": "65535",
        "farm": 66,
        "title": "IMG_0057_1",
        "ispublic": 1,
        "isfriend": 0,
        "isfamily": 0
      },
      {
        "id": "33752053628",
        "owner": "150068262@N06",
        "secret": "9bb5c3f942",
        "server": "65535",
        "farm": 66,
        "title": "IMG_0053",
        "ispublic": 1,
        "isfriend": 0,
        "isfamily": 0
      },
      {
        "id": "47629360371",
        "owner": "150068262@N06",
        "secret": "db4f03e758",
        "server": "65535",
        "farm": 66,
        "title": "IMG_0040",
        "ispublic": 1,
        "isfriend": 0,
        "isfamily": 0
      },
      {
        "id": "33752037578",
        "owner": "126327164@N06",
        "secret": "71b66b07cc",
        "server": "65535",
        "farm": 66,
        "title": "2V1A0615-3",
        "ispublic": 1,
        "isfriend": 0,
        "isfamily": 0
      },
      {
        "id": "47629136491",
        "owner": "169689032@N02",
        "secret": "5091c0dfed",
        "server": "65535",
        "farm": 66,
        "title": "",
        "ispublic": 1,
        "isfriend": 0,
        "isfamily": 0
      },
      {
        "id": "47576670602",
        "owner": "167400912@N02",
        "secret": "35088cfd6e",
        "server": "65535",
        "farm": 66,
        "title": "01b603e5cb387f29b9921ebec787eb9784baadec2a",
        "ispublic": 1,
        "isfriend": 0,
        "isfamily": 0
      },
      {
        "id": "40663006033",
        "owner": "146860704@N06",
        "secret": "173c39eb94",
        "server": "65535",
        "farm": 66,
        "title": "109",
        "ispublic": 1,
        "isfriend": 0,
        "isfamily": 0
      },
      {
        "id": "40663005393",
        "owner": "146860704@N06",
        "secret": "74298aecc7",
        "server": "65535",
        "farm": 66,
        "title": "107",
        "ispublic": 1,
        "isfriend": 0,
        "isfamily": 0
      },
      {
        "id": "47629406671",
        "owner": "28914673@N02",
        "secret": "7dc5a3586f",
        "server": "65535",
        "farm": 66,
        "title": "",
        "ispublic": 1,
        "isfriend": 0,
        "isfamily": 0
      },
      {
        "id": "46905156664",
        "owner": "24084039@N04",
        "secret": "6c5d517f13",
        "server": "65535",
        "farm": 66,
        "title": "CrossFit South Bay-8462.jpg",
        "ispublic": 1,
        "isfriend": 0,
        "isfamily": 0
      },
      {
        "id": "32686879117",
        "owner": "156399369@N03",
        "secret": "0cb73c9d54",
        "server": "65535",
        "farm": 66,
        "title": "DENS7139-3",
        "ispublic": 1,
        "isfriend": 0,
        "isfamily": 0
      },
      {
        "id": "40662995473",
        "owner": "156399369@N03",
        "secret": "9d1328846c",
        "server": "65535",
        "farm": 66,
        "title": "DENS7110",
        "ispublic": 1,
        "isfriend": 0,
        "isfamily": 0
      },
      {
        "id": "47576647482",
        "owner": "147695852@N04",
        "secret": "f054953fa5",
        "server": "65535",
        "farm": 66,
        "title": "0002",
        "ispublic": 1,
        "isfriend": 0,
        "isfamily": 0
      },
      {
        "id": "47576645422",
        "owner": "76857692@N03",
        "secret": "31656d5bf2",
        "server": "65535",
        "farm": 66,
        "title": "Pet adoption April 2019",
        "ispublic": 1,
        "isfriend": 0,
        "isfamily": 0
      },
      {
        "id": "47576645382",
        "owner": "76857692@N03",
        "secret": "e85b307f7a",
        "server": "65535",
        "farm": 66,
        "title": "Pet adoption April 2019",
        "ispublic": 1,
        "isfriend": 0,
        "isfamily": 0
      },
      {
        "id": "32686864617",
        "owner": "52487545@N08",
        "secret": "b74d072e6d",
        "server": "65535",
        "farm": 66,
        "title": "IMG_9664-1",
        "ispublic": 1,
        "isfriend": 0,
        "isfamily": 0
      },
      {
        "id": "47576638812",
        "owner": "164567709@N03",
        "secret": "04540ea4dd",
        "server": "65535",
        "farm": 66,
        "title": "\u5c0f\u5f1f0001",
        "ispublic": 1,
        "isfriend": 0,
        "isfamily": 0
      },
      {
        "id": "40662982693",
        "owner": "60648998@N00",
        "secret": "7b531d7243",
        "server": "65535",
        "farm": 66,
        "title": "60thIPSwim-Day1-Ses2-64",
        "ispublic": 1,
        "isfriend": 0,
        "isfamily": 0
      },
      {
        "id": "47629356821",
        "owner": "60648998@N00",
        "secret": "28b98830b7",
        "server": "65535",
        "farm": 66,
        "title": "60thIPSwim-Day1-Ses2-75",
        "ispublic": 1,
        "isfriend": 0,
        "isfamily": 0
      },
      {
        "id": "40662981393",
        "owner": "60648998@N00",
        "secret": "a7670c22d9",
        "server": "65535",
        "farm": 66,
        "title": "60thIPSwim-Day1-Ses2-76",
        "ispublic": 1,
        "isfriend": 0,
        "isfamily": 0
      },
      {
        "id": "47576627562",
        "owner": "60648998@N00",
        "secret": "d231f61e46",
        "server": "65535",
        "farm": 66,
        "title": "60thIPSwim-Day1-Ses2-100",
        "ispublic": 1,
        "isfriend": 0,
        "isfamily": 0
      },
      {
        "id": "47629350911",
        "owner": "49521470@N03",
        "secret": "4229cdacfd",
        "server": "65535",
        "farm": 66,
        "title": "Le galgo",
        "ispublic": 1,
        "isfriend": 0,
        "isfamily": 0
      },
      {
        "id": "47629346441",
        "owner": "60648998@N00",
        "secret": "7d570c51db",
        "server": "65535",
        "farm": 66,
        "title": "60thIPSwim-Day1-Ses2-136",
        "ispublic": 1,
        "isfriend": 0,
        "isfamily": 0
      },
      {
        "id": "46905121654",
        "owner": "51111461@N03",
        "secret": "05f8dc6025",
        "server": "65535",
        "farm": 66,
        "title": "Manuel_and_LittleGucci",
        "ispublic": 1,
        "isfriend": 0,
        "isfamily": 0
      },
      {
        "id": "40662971613",
        "owner": "123597211@N03",
        "secret": "5ec4bb26e1",
        "server": "65535",
        "farm": 66,
        "title": "Jaguar (Lat. Panthera onca)",
        "ispublic": 1,
        "isfriend": 0,
        "isfamily": 0
      },
      {
        "id": "47629340691",
        "owner": "60648998@N00",
        "secret": "ce6c17f800",
        "server": "65535",
        "farm": 66,
        "title": "60thIPSwim-Day1-Ses2-148",
        "ispublic": 1,
        "isfriend": 0,
        "isfamily": 0
      },
      {
        "id": "33752032218",
        "owner": "163644444@N08",
        "secret": "fb1d16081e",
        "server": "65535",
        "farm": 66,
        "title": "Scally_L_W01_01-3",
        "ispublic": 1,
        "isfriend": 0,
        "isfamily": 0
      },
      {
        "id": "46905113054",
        "owner": "163644444@N08",
        "secret": "3935e4fbeb",
        "server": "65535",
        "farm": 66,
        "title": "Scally_L_W01_01-4",
        "ispublic": 1,
        "isfriend": 0,
        "isfamily": 0
      },
      {
        "id": "46713823765",
        "owner": "163644444@N08",
        "secret": "b9e5ba63c4",
        "server": "65535",
        "farm": 66,
        "title": "Scally_L_W01_01-6",
        "ispublic": 1,
        "isfriend": 0,
        "isfamily": 0
      },
      {
        "id": "33752025718",
        "owner": "76857692@N03",
        "secret": "da929c6d88",
        "server": "65535",
        "farm": 66,
        "title": "Nashville 2019 Spring Break",
        "ispublic": 1,
        "isfriend": 0,
        "isfamily": 0
      },
      {
        "id": "46905109274",
        "owner": "62077497@N00",
        "secret": "a0a0ddf59e",
        "server": "65535",
        "farm": 66,
        "title": "",
        "ispublic": 1,
        "isfriend": 0,
        "isfamily": 0
      },
      {
        "id": "47576603332",
        "owner": "145489077@N05",
        "secret": "3caa9a26ca",
        "server": "65535",
        "farm": 66,
        "title": "DSC_4733",
        "ispublic": 1,
        "isfriend": 0,
        "isfamily": 0
      },
      {
        "id": "47629328651",
        "owner": "156399369@N03",
        "secret": "1942754478",
        "server": "65535",
        "farm": 66,
        "title": "DENS6954",
        "ispublic": 1,
        "isfriend": 0,
        "isfamily": 0
      },
      {
        "id": "32686826057",
        "owner": "12560758@N07",
        "secret": "e72106301e",
        "server": "65535",
        "farm": 66,
        "title": "Pets resting on bed",
        "ispublic": 1,
        "isfriend": 0,
        "isfamily": 0
      },
      {
        "id": "40662933733",
        "owner": "25449831@N00",
        "secret": "028b97d027",
        "server": "65535",
        "farm": 66,
        "title": "intertidal crows",
        "ispublic": 1,
        "isfriend": 0,
        "isfamily": 0
      },
      {
        "id": "47576497182",
        "owner": "144744873@N05",
        "secret": "ed1cd3f5a9",
        "server": "65535",
        "farm": 66,
        "title": "_DSC0488",
        "ispublic": 1,
        "isfriend": 0,
        "isfamily": 0
      },
      {
        "id": "47576312872",
        "owner": "144744873@N05",
        "secret": "f93e85f2fd",
        "server": "65535",
        "farm": 66,
        "title": "_DSC0906",
        "ispublic": 1,
        "isfriend": 0,
        "isfamily": 0
      },
      {
        "id": "40662954873",
        "owner": "62077497@N00",
        "secret": "deda42bffe",
        "server": "65535",
        "farm": 66,
        "title": "",
        "ispublic": 1,
        "isfriend": 0,
        "isfamily": 0
      },
      {
        "id": "33752022178",
        "owner": "8166339@N08",
        "secret": "7ab6f92a40",
        "server": "65535",
        "farm": 66,
        "title": "2019 Seton Hall Giving Day",
        "ispublic": 1,
        "isfriend": 0,
        "isfamily": 0
      },
      {
        "id": "47576602422",
        "owner": "62077497@N00",
        "secret": "920157b69a",
        "server": "65535",
        "farm": 66,
        "title": "",
        "ispublic": 1,
        "isfriend": 0,
        "isfamily": 0
      },
      {
        "id": "33752019578",
        "owner": "62077497@N00",
        "secret": "fe9c3ef3e1",
        "server": "65535",
        "farm": 66,
        "title": "",
        "ispublic": 1,
        "isfriend": 0,
        "isfamily": 0
      },
      {
        "id": "46713807675",
        "owner": "62077497@N00",
        "secret": "310d3c5933",
        "server": "65535",
        "farm": 66,
        "title": "",
        "ispublic": 1,
        "isfriend": 0,
        "isfamily": 0
      },
      {
        "id": "47576805022",
        "owner": "59362368@N00",
        "secret": "1f1e6efa80",
        "server": "65535",
        "farm": 66,
        "title": "20170412_100422",
        "ispublic": 1,
        "isfriend": 0,
        "isfamily": 0
      }
    ]
  },
  "stat": "ok"
}